{
	"nav": {
		"prev": "/?page=1",
		"next": false
	},
	"list": [
		{
			"club": {
				"value": "Школа маркетинга",
				"url": "#"
			},
			"name": {
				"value": "Diploma in Professional Marketing",
				"url": "#"
			},
			"date": "11 февраль",
			"city": "Минск",
			"time": "108 часов",
			"cost": "6 190 BYN",
			"marks": {
				"new": false,
				"sale": false,
				"video": false
			},
			"button": {
				"value": "Заявка",
				"url": "#"
			},
			"messages": false
		},{
			"club": {
				"value": "Академия Собственника",
				"url": "#"
			},
			"name": {
				"value": "Менеджмент в интересах собственника",
				"url": "#"
			},
			"date": "15–27 февраль",
			"city": "Минск",
			"time": "108 часов",
			"cost": "360 BYN",
			"marks": {
				"new": true,
				"sale": false,
				"video": false
			},
			"button": {
				"value": "Заявка",
				"url": "#"
			},
			"messages": false
		},{
			"club": {
				"value": "Школа финансов и контроллинга",
				"url": "#"
			},
			"name": {
				"value": "Менеджмент в интересах собственника",
				"url": "#"
			},
			"date": "21 февраль",
			"city": false,
			"time": "108 часов",
			"cost": "560 BYN",
			"marks": {
				"new": false,
				"sale": true,
				"video": true
			},
			"button": {
				"value": "Заявка",
				"url": "#"
			},
			"messages": {
				"value": 4,
				"url": "#"
			}
		},{
			"club": {
				"value": "Школа продаж",
				"url": "#"
			},
			"name": {
				"value": "Управленческий учет: взять и сделать!",
				"url": "#"
			},
			"date": "28 февраль",
			"city": "Минск",
			"time": "48 часов",
			"cost": "360 BYN",
			"marks": {
				"new": false,
				"sale": false,
				"video": false
			},
			"button": {
				"value": "Заявка",
				"url": "#"
			},
			"messages": false
		},{
			"club": {
				"value": "Школа развития производственной компании",
				"url": "#"
			},
			"name": {
				"value": "Очень просто о финансах",
				"url": "#"
			},
			"date": "23–26 февраль",
			"city": false,
			"time": "60 часов",
			"cost": "740 BYN",
			"marks": {
				"new": false,
				"sale": false,
				"video": false
			},
			"button": {
				"value": "Заявка",
				"url": "#"
			},
			"messages": false
		},{
			"club": {
				"value": "Школа маркетинга",
				"url": "#"
			},
			"name": {
				"value": "Diploma in Professional Marketing",
				"url": "#"
			},
			"date": "15–27 март",
			"city": "Минск, Гродно",
			"time": "108 часов",
			"cost": "6 190 BYN",
			"marks": {
				"new": true,
				"sale": true,
				"video": true
			},
			"button": {
				"value": "Заявка",
				"url": "#"
			},
			"messages": {
				"value": 12,
				"url": "#"
			}
		},{
			"club": {
				"value": "Академия Собственника",
				"url": "#"
			},
			"name": {
				"value": "Менеджмент в интересах собственника",
				"url": "#"
			},
			"date": false,
			"city": "Минск",
			"time": "108 часов",
			"cost": "360 BYN",
			"marks": {
				"new": false,
				"sale": false,
				"video": false
			},
			"button": {
				"value": "Сообщить о дате",
				"url": "#"
			},
			"messages": false
		},{
			"club": {
				"value": "Школа финансов и контроллинга",
				"url": "#"
			},
			"name": {
				"value": "Менеджмент в интересах собственника",
				"url": "#"
			},
			"date": "23–26 март",
			"city": "Минск, Могилев, Гомель",
			"time": "52 часа",
			"cost": "",
			"marks": {
				"new": false,
				"sale": false,
				"video": false
			},
			"button": {
				"value": "Сообщить о цене",
				"url": "#"
			},
			"messages": {
				"value": 5,
				"url": "#"
			}
		}
	]
}