<?xml version="1.0" encoding="utf-8"?>
<!-- Generator: Adobe Illustrator 22.0.1, SVG Export Plug-In . SVG Version: 6.00 Build 0)  -->
<svg version="1.1" id="Слой_2_1_" xmlns="http://www.w3.org/2000/svg" xmlns:xlink="http://www.w3.org/1999/xlink" x="0px"
	 y="0px" viewBox="0 0 16 16" style="enable-background:new 0 0 16 16;" xml:space="preserve">
<style type="text/css">
	.st0{fill:#EC1C24;}
</style>
<g>
	<g>
		<path class="st0" d="M5.9,4.6h4.3v1.1H6.3H5.9h0V4.6L5.9,4.6z M6.3,7.4h3.8v1.1H6.7H5.9h0V7.4H6.3L6.3,7.4L6.3,7.4z M6.7,10.3h3.5
			v1.1H5.9v-1.1H6.7L6.7,10.3z"/>
	</g>
	<g>
		<path class="st0" d="M12.3,7.4H16v1.1h-3.6h-0.5h-0.1V7.4H12.3L12.3,7.4L12.3,7.4z M11.7,5.7V4.6H16v1.1h-3.7H11.7L11.7,5.7z"/>
	</g>
	<g>
		<path class="st0" d="M0,7.7l3.1-3.1h1.5L1.4,7.8l3.4,3.5H3.2L0,8.1V7.7z"/>
	</g>
</g>
</svg>
