<?xml version="1.0" encoding="utf-8"?>
<!-- Generator: Adobe Illustrator 22.0.1, SVG Export Plug-In . SVG Version: 6.00 Build 0)  -->
<svg version="1.1" id="Слой_2_1_" xmlns="http://www.w3.org/2000/svg" xmlns:xlink="http://www.w3.org/1999/xlink" x="0px"
	 y="0px" viewBox="0 0 168 112" style="enable-background:new 0 0 168 112;" xml:space="preserve">
<style type="text/css">
	.st0{fill-rule:evenodd;clip-rule:evenodd;fill:#EC1C24;}
	.st1{fill-rule:evenodd;clip-rule:evenodd;fill:#929497;}
	.st2{fill-rule:evenodd;clip-rule:evenodd;fill:#231F20;}
	.st3{fill:#7C7C7C;}
	.st4{fill-rule:evenodd;clip-rule:evenodd;fill:#7C7C7C;}
	.st5{fill:#FFFFFF;}
</style>
<g>
	<g>
		<path class="st0" d="M27,17h19.2v5H29h-1.9H27V17L27,17z M29,29.8h17v5H30.6h-3.5H27v-5L29,29.8L29,29.8L29,29.8z M30.6,42.6h15.6
			v5H27v-5L30.6,42.6L30.6,42.6z"/>
		<rect x="26.6" class="st1" width="0.6" height="78.1"/>
	</g>
	<g>
		<path class="st0" d="M55.8,29.8h16.6v5H56.2h-2.4h-0.4v-5L55.8,29.8L55.8,29.8L55.8,29.8z M53.3,22v-5h19.3v5H55.8h-2.1H53.3z"/>
		<rect x="53.2" class="st1" width="0.6" height="78.1"/>
	</g>
	<g>
		<rect class="st1" width="0.6" height="78.1"/>
		<path class="st0" d="M0.6,31l13.9-14h6.9L6.7,31.6l15.5,15.9h-7L0.6,32.8C0.6,78,0.6-9.8,0.6,31z"/>
	</g>
	<path class="st2" d="M83.6,27.7c-0.3,0-0.4-0.1-0.4-0.4V16.7c0-0.3,0.1-0.4,0.4-0.4h0.7c0.3,0,0.4,0.1,0.4,0.4v4.7
		c0,0.2,0,0.4,0,0.6h0l5.3-5.5c0.2-0.2,0.4-0.3,0.6-0.3h1c0.4,0,0.5,0.2,0.1,0.5L87.7,21l4.3,6.2c0.2,0.4,0.2,0.5-0.1,0.5h-1
		c-0.2,0-0.4-0.1-0.6-0.3l-3.7-5.4L84.7,24v3.3c0,0.3-0.1,0.4-0.4,0.4H83.6L83.6,27.7z M93.1,25.5c0-0.9,0.4-1.6,1.3-2.1
		c0.9-0.4,2.2-0.7,4-0.8v-0.5c0-0.5-0.1-0.9-0.3-1.3c-0.2-0.4-0.7-0.5-1.3-0.5c-0.5,0-1,0.1-1.3,0.2c-0.4,0.1-0.7,0.4-1,0.7
		c-0.1,0.2-0.3,0.2-0.4,0l-0.4-0.5c-0.1-0.1-0.1-0.3,0.1-0.5c0.4-0.4,0.9-0.7,1.5-0.8c0.6-0.1,1.1-0.2,1.5-0.2
		c1.1,0,1.9,0.3,2.4,0.9c0.5,0.6,0.7,1.4,0.7,2.3v4.9c0,0.2-0.1,0.4-0.4,0.4h-0.7c-0.2,0-0.3-0.1-0.3-0.4V27l0,0
		c-0.4,0.3-0.8,0.6-1.2,0.7c-0.4,0.1-0.8,0.2-1.3,0.2c-0.9,0-1.5-0.2-2-0.6C93.3,26.8,93.1,26.2,93.1,25.5L93.1,25.5z M94.5,25.5
		c0,0.5,0.1,0.9,0.4,1.1c0.2,0.2,0.6,0.3,1.2,0.3c0.4,0,0.8,0,1.2-0.1c0.4-0.1,0.7-0.3,1.1-0.6v-2.4c-1.8,0.1-2.9,0.4-3.3,0.7
		C94.7,24.7,94.5,25.1,94.5,25.5L94.5,25.5z M101.6,27c-0.2-0.2-0.2-0.3-0.1-0.4l0.4-0.5c0.1-0.2,0.3-0.2,0.5,0
		c0.3,0.2,0.7,0.4,1,0.6c0.4,0.1,0.8,0.2,1.3,0.2c0.3,0,0.6,0,0.8-0.1c0.2-0.1,0.4-0.2,0.6-0.4c0.2-0.2,0.3-0.5,0.3-0.8
		c0-0.2,0-0.4-0.1-0.5c-0.1-0.2-0.2-0.3-0.4-0.4c-0.2-0.1-0.3-0.2-0.5-0.2c-0.3-0.1-0.5-0.2-0.8-0.3c-0.3-0.1-0.6-0.2-1.1-0.3
		c-0.3-0.1-0.6-0.2-0.8-0.4c-0.3-0.2-0.5-0.4-0.7-0.7c-0.2-0.3-0.3-0.7-0.3-1.2c0-0.5,0.2-1,0.5-1.3c0.3-0.4,0.7-0.6,1.2-0.8
		c0.5-0.1,0.9-0.2,1.4-0.2c0.7,0,1.2,0.1,1.6,0.2c0.4,0.1,0.7,0.3,1,0.5c0.2,0.1,0.2,0.3,0.1,0.4l-0.4,0.5c-0.1,0.2-0.3,0.1-0.5,0
		c-0.2-0.1-0.5-0.3-0.8-0.4c-0.4-0.1-0.7-0.2-0.9-0.2c-0.3,0-0.6,0-0.9,0.1c-0.2,0.1-0.4,0.2-0.6,0.4c-0.1,0.2-0.2,0.4-0.2,0.6
		c0,0.2,0,0.4,0.1,0.5c0.1,0.1,0.2,0.3,0.3,0.4c0.2,0.1,0.4,0.2,0.7,0.3c0.4,0.1,0.9,0.2,1.2,0.3c0.4,0.1,0.7,0.2,1,0.4
		c0.4,0.2,0.7,0.4,0.9,0.6c0.2,0.2,0.4,0.5,0.4,0.7c0.1,0.3,0.1,0.5,0.1,0.8c0,0.6-0.2,1-0.5,1.4c-0.3,0.4-0.7,0.7-1.1,0.8
		c-0.4,0.1-0.9,0.2-1.5,0.2c-0.8,0-1.5-0.1-2-0.3C102.1,27.3,101.7,27.1,101.6,27L101.6,27z M109.2,20.4c-0.2,0-0.4-0.1-0.4-0.3
		v-0.5c0-0.2,0.1-0.3,0.4-0.3h0.9v-0.7c0-0.1,0-0.2,0.1-0.3l0.6-1c0.1-0.2,0.2-0.3,0.2-0.3h0.3c0.2,0,0.2,0.1,0.2,0.3v2h1.7
		c0.2,0,0.4,0.1,0.4,0.3v0.5c0,0.2-0.1,0.3-0.4,0.3h-1.7v5.1c0,0.6,0.1,0.9,0.3,1.1c0.2,0.2,0.4,0.3,0.6,0.3c0.2,0,0.4-0.1,0.6-0.2
		c0.3-0.1,0.4-0.2,0.5-0.3c0.1-0.1,0.2,0,0.2,0.1l0.3,0.6c0,0.1,0,0.2-0.1,0.3c-0.2,0.1-0.5,0.2-0.9,0.3c-0.4,0.1-0.8,0.2-1.2,0.2
		c-0.6,0-1-0.2-1.3-0.6c-0.3-0.4-0.4-1-0.4-1.7v-5.2H109.2L109.2,20.4z M116,27.7c-0.2,0-0.4-0.1-0.4-0.4v-7.7
		c0-0.2,0.1-0.4,0.4-0.4h0.7c0.2,0,0.4,0.1,0.4,0.4v1l0,0c0.3-0.5,0.6-0.8,0.9-1.1c0.3-0.2,0.8-0.4,1.3-0.4c0.3,0,0.6,0,0.7,0.1
		c0.1,0,0.2,0.1,0.1,0.2l-0.2,0.7c0,0.1-0.1,0.1-0.2,0.1c-0.2,0-0.4-0.1-0.5-0.1c-0.6,0-1.1,0.3-1.5,0.8c-0.4,0.6-0.6,1.3-0.6,2.3v4
		c0,0.2-0.1,0.4-0.4,0.4H116L116,27.7z M120.6,19.8c-0.1-0.3,0-0.4,0.2-0.4h0.8c0.2,0,0.3,0.1,0.3,0.3l1.9,5.3
		c0,0.1,0.1,0.4,0.2,0.7c0.1,0.3,0.1,0.6,0.2,0.8h0c0-0.2,0.1-0.5,0.1-0.7c0.1-0.2,0.1-0.5,0.2-0.8l1.9-5.3c0.1-0.2,0.2-0.3,0.3-0.3
		h0.8c0.2,0,0.3,0.1,0.2,0.4l-2.7,7.5c-0.5,1.4-1,2.4-1.4,3c-0.4,0.6-1,0.8-1.8,0.8c-0.4,0-0.7-0.1-1-0.2c-0.1-0.1-0.1-0.1-0.1-0.2
		L121,30c0-0.1,0.1-0.1,0.2-0.1c0.2,0.1,0.4,0.1,0.6,0.1c0.4,0,0.7-0.2,0.9-0.6c0.2-0.4,0.4-0.8,0.6-1.2l0.2-0.5L120.6,19.8
		L120.6,19.8z M130.3,17.1c-0.2-0.2-0.2-0.3-0.1-0.4l0.2-0.2c0.1-0.1,0.3-0.1,0.5,0l1.7,1.4h0l1.7-1.4c0.2-0.1,0.3-0.2,0.5,0
		l0.2,0.2c0.1,0.1,0.1,0.3-0.1,0.4l-1.6,1.4c-0.2,0.1-0.3,0.2-0.4,0.2h-0.4c-0.1,0-0.3-0.1-0.4-0.2L130.3,17.1L130.3,17.1z
		 M128.8,23.5c0-1.2,0.3-2.3,0.9-3.1c0.6-0.8,1.6-1.2,2.8-1.2c0.9,0,1.5,0.2,2,0.5c0.5,0.3,0.8,0.6,1,0.9c0.1,0.2,0.1,0.3-0.1,0.4
		l-0.5,0.3c-0.2,0.1-0.3,0-0.5-0.2c-0.2-0.2-0.4-0.5-0.6-0.6c-0.3-0.2-0.7-0.3-1.2-0.3c-0.7,0-1.3,0.3-1.7,0.8
		c-0.4,0.5-0.6,1.4-0.6,2.5c0,1.1,0.2,1.9,0.6,2.5c0.4,0.5,1,0.8,1.7,0.8c0.6,0,1-0.1,1.4-0.3c0.3-0.2,0.5-0.5,0.7-0.7
		c0.1-0.3,0.3-0.3,0.5-0.2l0.5,0.3c0.2,0.1,0.2,0.2,0.1,0.4c-0.1,0.2-0.4,0.5-0.9,1c-0.5,0.4-1.2,0.6-2.2,0.6
		c-1.3,0-2.2-0.4-2.8-1.2C129.1,25.8,128.8,24.8,128.8,23.5L128.8,23.5z M137.8,27.7c-0.2,0-0.4-0.1-0.4-0.4v-7.7
		c0-0.2,0.1-0.4,0.4-0.4h0.7c0.2,0,0.4,0.1,0.4,0.4v0.6l0,0c0.3-0.4,0.7-0.7,1.1-0.8c0.4-0.2,0.9-0.3,1.5-0.3c1,0,1.7,0.3,2.1,0.8
		c0.4,0.5,0.6,1.3,0.6,2.2v5.1c0,0.2-0.1,0.4-0.4,0.4h-0.7c-0.2,0-0.4-0.1-0.4-0.4v-4.7c0-1-0.2-1.7-0.5-2c-0.3-0.3-0.8-0.4-1.3-0.4
		c-0.7,0-1.2,0.2-1.6,0.6c-0.4,0.4-0.5,1.1-0.5,2.1v4.4c0,0.2-0.1,0.4-0.4,0.4H137.8L137.8,27.7z M146.8,27.7
		c-0.2,0-0.4-0.1-0.4-0.4v-7.7c0-0.2,0.1-0.4,0.4-0.4h0.7c0.2,0,0.4,0.1,0.4,0.4v7.7c0,0.2-0.1,0.4-0.4,0.4H146.8L146.8,27.7z
		 M146.8,17.9c-0.2,0-0.4-0.1-0.4-0.4v-0.7c0-0.2,0.1-0.4,0.4-0.4h0.7c0.2,0,0.4,0.1,0.4,0.4v0.7c0,0.2-0.1,0.4-0.4,0.4H146.8
		L146.8,17.9z M149.7,23.5c0-1.2,0.3-2.3,0.9-3.1c0.6-0.8,1.6-1.2,2.8-1.2c0.9,0,1.5,0.2,2,0.5c0.5,0.3,0.8,0.6,1,0.9
		c0.1,0.2,0.1,0.3-0.1,0.4l-0.5,0.3c-0.2,0.1-0.3,0-0.5-0.2c-0.2-0.2-0.4-0.5-0.6-0.6c-0.3-0.2-0.7-0.3-1.2-0.3
		c-0.7,0-1.3,0.3-1.7,0.8c-0.4,0.5-0.6,1.4-0.6,2.5c0,1.1,0.2,1.9,0.6,2.5c0.4,0.5,1,0.8,1.7,0.8c0.6,0,1-0.1,1.4-0.3
		c0.3-0.2,0.5-0.5,0.7-0.7c0.1-0.3,0.3-0.3,0.5-0.2l0.5,0.3c0.2,0.1,0.2,0.2,0.1,0.4c-0.1,0.2-0.4,0.5-0.9,1
		c-0.5,0.4-1.2,0.6-2.2,0.6c-1.3,0-2.2-0.4-2.8-1.2C150,25.8,149.7,24.8,149.7,23.5L149.7,23.5z M158.6,27.7c-0.2,0-0.4-0.1-0.4-0.4
		V16.3c0-0.2,0.1-0.4,0.4-0.4h0.7c0.2,0,0.4,0.1,0.4,0.4V23c0,0.2,0,0.3,0,0.5h0l3.2-3.9c0.1-0.1,0.3-0.2,0.4-0.2h0.7
		c0.4,0,0.5,0.2,0.2,0.5l-2.5,3l2.9,4.5c0.2,0.3,0.1,0.5-0.2,0.5h-0.8c-0.2,0-0.3-0.1-0.5-0.3l-2.3-3.6l-1.2,1.4v2.1
		c0,0.2-0.1,0.4-0.4,0.4H158.6L158.6,27.7z M166.6,27.7c-0.2,0-0.4-0.1-0.4-0.4v-7.7c0-0.2,0.1-0.4,0.4-0.4h0.7
		c0.2,0,0.4,0.1,0.4,0.4v7.7c0,0.2-0.1,0.4-0.4,0.4H166.6L166.6,27.7z M166.6,17.9c-0.2,0-0.4-0.1-0.4-0.4v-0.7
		c0-0.2,0.1-0.4,0.4-0.4h0.7c0.2,0,0.4,0.1,0.4,0.4v0.7c0,0.2-0.1,0.4-0.4,0.4H166.6L166.6,17.9z M83.6,48.3c-0.3,0-0.4-0.1-0.4-0.4
		V37.3c0-0.3,0.1-0.4,0.4-0.4h7c0.3,0,0.4,0.1,0.4,0.4v0.6c0,0.2-0.1,0.4-0.4,0.4h-5.8v3.5h5.4c0.3,0,0.4,0.1,0.4,0.4v0.6
		c0,0.2-0.1,0.4-0.4,0.4h-5.4v4h6.1c0.3,0,0.4,0.1,0.4,0.4v0.6c0,0.2-0.1,0.4-0.4,0.4H83.6L83.6,48.3z M93.4,48.3
		c-0.2,0-0.4-0.1-0.4-0.4V36.9c0-0.2,0.1-0.4,0.4-0.4h0.7c0.2,0,0.4,0.1,0.4,0.4v6.6c0,0.2,0,0.3,0,0.5h0l3.2-3.9
		c0.1-0.1,0.3-0.2,0.4-0.2h0.7c0.4,0,0.5,0.2,0.2,0.5l-2.5,3l2.9,4.5c0.2,0.3,0.1,0.5-0.2,0.5h-0.8c-0.2,0-0.3-0.1-0.5-0.3l-2.3-3.6
		l-1.2,1.4v2.1c0,0.2-0.1,0.4-0.4,0.4H93.4L93.4,48.3z M100.6,46.1c0-0.9,0.4-1.6,1.3-2.1c0.9-0.4,2.2-0.7,4-0.8v-0.5
		c0-0.5-0.1-0.9-0.3-1.3c-0.2-0.4-0.7-0.5-1.3-0.5c-0.5,0-1,0.1-1.3,0.2c-0.4,0.1-0.7,0.4-1,0.7c-0.1,0.2-0.3,0.2-0.4,0l-0.4-0.5
		c-0.1-0.1-0.1-0.3,0.1-0.5c0.4-0.4,0.9-0.7,1.5-0.8c0.6-0.1,1.1-0.2,1.5-0.2c1.1,0,1.9,0.3,2.4,0.9c0.5,0.6,0.7,1.4,0.7,2.3v4.9
		c0,0.2-0.1,0.4-0.4,0.4h-0.7c-0.2,0-0.3-0.1-0.3-0.4v-0.4l0,0c-0.4,0.3-0.8,0.6-1.2,0.7c-0.4,0.1-0.8,0.2-1.3,0.2
		c-0.9,0-1.5-0.2-2-0.6C100.9,47.4,100.6,46.8,100.6,46.1L100.6,46.1z M102.1,46c0,0.5,0.1,0.9,0.4,1.1c0.2,0.2,0.6,0.3,1.2,0.3
		c0.4,0,0.8,0,1.2-0.1c0.4-0.1,0.7-0.3,1.1-0.6v-2.4c-1.8,0.1-2.9,0.4-3.3,0.7C102.3,45.3,102.1,45.6,102.1,46L102.1,46z
		 M109.9,48.3c-0.2,0-0.4-0.1-0.4-0.4v-7.7c0-0.2,0.1-0.4,0.4-0.4h0.7c0.2,0,0.4,0.1,0.4,0.4v0.6l0,0c0.3-0.4,0.7-0.7,1.1-0.8
		c0.4-0.2,0.9-0.3,1.5-0.3c1,0,1.7,0.3,2.1,0.8c0.4,0.5,0.6,1.3,0.6,2.2v5.1c0,0.2-0.1,0.4-0.4,0.4h-0.7c-0.2,0-0.4-0.1-0.4-0.4
		v-4.7c0-1-0.2-1.7-0.5-2c-0.3-0.3-0.8-0.4-1.3-0.4c-0.7,0-1.2,0.2-1.6,0.6c-0.4,0.4-0.5,1.1-0.5,2.1v4.4c0,0.2-0.1,0.4-0.4,0.4
		H109.9L109.9,48.3z M118.1,46.1c0-0.9,0.4-1.6,1.3-2.1c0.9-0.4,2.2-0.7,4-0.8v-0.5c0-0.5-0.1-0.9-0.3-1.3c-0.2-0.4-0.7-0.5-1.3-0.5
		c-0.5,0-1,0.1-1.3,0.2c-0.4,0.1-0.7,0.4-1,0.7c-0.1,0.2-0.3,0.2-0.4,0l-0.4-0.5c-0.1-0.1-0.1-0.3,0.1-0.5c0.4-0.4,0.9-0.7,1.5-0.8
		c0.6-0.1,1.1-0.2,1.5-0.2c1.1,0,1.9,0.3,2.4,0.9c0.5,0.6,0.7,1.4,0.7,2.3v4.9c0,0.2-0.1,0.4-0.4,0.4h-0.7c-0.2,0-0.3-0.1-0.3-0.4
		v-0.4l0,0c-0.4,0.3-0.8,0.6-1.2,0.7c-0.4,0.1-0.8,0.2-1.3,0.2c-0.9,0-1.5-0.2-2-0.6C118.4,47.4,118.1,46.8,118.1,46.1L118.1,46.1z
		 M119.6,46c0,0.5,0.1,0.9,0.4,1.1c0.2,0.2,0.6,0.3,1.2,0.3c0.4,0,0.8,0,1.2-0.1c0.4-0.1,0.7-0.3,1.1-0.6v-2.4
		c-1.8,0.1-2.9,0.4-3.3,0.7C119.8,45.3,119.6,45.6,119.6,46L119.6,46z M127.4,48.3c-0.2,0-0.4-0.1-0.4-0.4v-7.7
		c0-0.2,0.1-0.4,0.4-0.4h0.7c0.2,0,0.4,0.1,0.4,0.4v0.6l0,0c0.3-0.4,0.7-0.7,1.1-0.8c0.4-0.2,0.8-0.3,1.2-0.3c0.7,0,1.2,0.1,1.6,0.4
		c0.4,0.2,0.6,0.5,0.7,0.8h0c0.3-0.3,0.7-0.6,1.1-0.8c0.4-0.2,0.9-0.3,1.4-0.3c0.8,0,1.5,0.3,1.9,0.8c0.4,0.5,0.6,1.3,0.6,2.2v5.1
		c0,0.2-0.1,0.4-0.4,0.4h-0.7c-0.2,0-0.4-0.1-0.4-0.4v-4.6c0-1-0.1-1.7-0.4-2c-0.3-0.3-0.7-0.5-1.2-0.5c-0.5,0-1,0.2-1.3,0.7
		c-0.4,0.5-0.5,1.1-0.5,2.1v4.4c0,0.2-0.1,0.4-0.4,0.4h-0.7c-0.2,0-0.4-0.1-0.4-0.4v-4.6c0-1-0.1-1.7-0.4-2
		c-0.3-0.3-0.7-0.5-1.2-0.5c-0.5,0-1,0.2-1.3,0.6c-0.4,0.4-0.5,1.1-0.5,2.1v4.4c0,0.2-0.1,0.4-0.4,0.4H127.4L127.4,48.3z
		 M140.7,48.3c-0.2,0-0.4-0.1-0.4-0.4v-7.7c0-0.2,0.1-0.4,0.4-0.4h0.7c0.2,0,0.4,0.1,0.4,0.4v7.7c0,0.2-0.1,0.4-0.4,0.4H140.7
		L140.7,48.3z M140.7,38.4c-0.2,0-0.4-0.1-0.4-0.4v-0.7c0-0.2,0.1-0.4,0.4-0.4h0.7c0.2,0,0.4,0.1,0.4,0.4v0.7c0,0.2-0.1,0.4-0.4,0.4
		H140.7L140.7,38.4z M145,37.6c-0.2-0.2-0.2-0.3-0.1-0.4l0.2-0.2c0.1-0.1,0.3-0.1,0.5,0l1.7,1.4h0L149,37c0.2-0.1,0.3-0.2,0.5,0
		l0.2,0.2c0.1,0.1,0.1,0.3-0.1,0.4L148,39c-0.2,0.1-0.3,0.2-0.4,0.2h-0.4c-0.1,0-0.3-0.1-0.4-0.2L145,37.6L145,37.6z M143.6,44.1
		c0-1.2,0.3-2.3,0.9-3.1c0.6-0.8,1.6-1.2,2.8-1.2c0.9,0,1.5,0.2,2,0.5c0.5,0.3,0.8,0.6,1,0.9c0.1,0.2,0.1,0.3-0.1,0.4l-0.5,0.3
		c-0.2,0.1-0.3,0-0.5-0.2c-0.2-0.2-0.4-0.5-0.6-0.6c-0.3-0.2-0.7-0.3-1.2-0.3c-0.7,0-1.3,0.3-1.7,0.8c-0.4,0.5-0.6,1.4-0.6,2.5
		c0,1.1,0.2,1.9,0.6,2.5c0.4,0.5,1,0.8,1.7,0.8c0.6,0,1-0.1,1.4-0.3c0.3-0.2,0.5-0.5,0.7-0.7c0.1-0.3,0.3-0.3,0.5-0.2l0.5,0.3
		c0.2,0.1,0.2,0.2,0.1,0.4c-0.1,0.2-0.4,0.5-0.9,1c-0.5,0.4-1.2,0.6-2.2,0.6c-1.3,0-2.2-0.4-2.8-1.2
		C143.9,46.4,143.6,45.4,143.6,44.1L143.6,44.1z M152.5,48.3c-0.2,0-0.4-0.1-0.4-0.4v-7.7c0-0.2,0.1-0.4,0.4-0.4h0.7
		c0.2,0,0.4,0.1,0.4,0.4v0.6l0,0c0.3-0.4,0.7-0.7,1.1-0.8c0.4-0.2,0.9-0.3,1.5-0.3c1,0,1.7,0.3,2.1,0.8c0.4,0.5,0.6,1.3,0.6,2.2v5.1
		c0,0.2-0.1,0.4-0.4,0.4h-0.7c-0.2,0-0.4-0.1-0.4-0.4v-4.7c0-1-0.2-1.7-0.5-2c-0.3-0.3-0.8-0.4-1.3-0.4c-0.7,0-1.2,0.2-1.6,0.6
		c-0.4,0.4-0.5,1.1-0.5,2.1v4.4c0,0.2-0.1,0.4-0.4,0.4H152.5L152.5,48.3z M160.5,40.3c-0.1-0.3,0-0.4,0.2-0.4h0.8
		c0.2,0,0.3,0.1,0.3,0.3l1.9,5.3c0,0.1,0.1,0.4,0.2,0.7c0.1,0.3,0.1,0.6,0.2,0.8h0c0-0.2,0.1-0.5,0.1-0.7c0.1-0.2,0.1-0.5,0.2-0.8
		l1.9-5.3c0.1-0.2,0.2-0.3,0.3-0.3h0.8c0.2,0,0.3,0.1,0.2,0.4l-2.7,7.5c-0.5,1.4-1,2.4-1.4,3c-0.4,0.6-1,0.8-1.8,0.8
		c-0.4,0-0.7-0.1-1-0.2c-0.1-0.1-0.1-0.1-0.1-0.2l0.2-0.6c0-0.1,0.1-0.1,0.2-0.1c0.2,0.1,0.4,0.1,0.6,0.1c0.4,0,0.7-0.2,0.9-0.6
		c0.2-0.4,0.4-0.8,0.6-1.2l0.2-0.5L160.5,40.3L160.5,40.3z M84,68c-0.3,0-0.4-0.1-0.4-0.4V57.1c0-0.3,0.1-0.4,0.4-0.4h6.5
		c0.3,0,0.4,0.1,0.4,0.4v0.6c0,0.2-0.1,0.4-0.4,0.4h-5.4v3.8h4.7c0.3,0,0.4,0.1,0.4,0.4v0.6c0,0.2-0.1,0.4-0.4,0.4h-4.7v4.6
		c0,0.3-0.1,0.4-0.4,0.4H84L84,68z M92.3,63.9c0-1.2,0.3-2.3,1-3.1c0.7-0.8,1.6-1.2,2.9-1.2c1.3,0,2.2,0.4,2.9,1.2
		c0.7,0.8,1,1.8,1,3.1c0,1.2-0.3,2.3-1,3.1c-0.7,0.8-1.6,1.2-2.9,1.2c-1.3,0-2.2-0.4-2.9-1.2C92.6,66.1,92.3,65.1,92.3,63.9
		L92.3,63.9z M93.8,63.9c0,1.1,0.2,1.9,0.7,2.5c0.4,0.5,1,0.8,1.8,0.8c0.7,0,1.3-0.3,1.8-0.8c0.4-0.5,0.7-1.4,0.7-2.5
		c0-1.1-0.2-1.9-0.7-2.5c-0.4-0.5-1-0.8-1.8-0.8c-0.7,0-1.3,0.3-1.8,0.8C94,61.9,93.8,62.7,93.8,63.9L93.8,63.9z M102.2,68
		c-0.2,0-0.4-0.1-0.4-0.4V60c0-0.2,0.1-0.4,0.4-0.4h0.7c0.2,0,0.4,0.1,0.4,0.4v1l0,0c0.3-0.5,0.6-0.8,0.9-1.1
		c0.3-0.2,0.8-0.4,1.3-0.4c0.3,0,0.6,0,0.7,0.1c0.1,0,0.2,0.1,0.1,0.2l-0.2,0.7c0,0.1-0.1,0.1-0.2,0.1c-0.2,0-0.4-0.1-0.5-0.1
		c-0.6,0-1.1,0.3-1.5,0.8c-0.4,0.6-0.6,1.3-0.6,2.3v4c0,0.2-0.1,0.4-0.4,0.4H102.2L102.2,68z M107.6,65.1V60c0-0.2,0.1-0.4,0.4-0.4
		h0.7c0.2,0,0.4,0.1,0.4,0.4v4.7c0,1,0.2,1.7,0.5,2c0.3,0.3,0.8,0.4,1.3,0.4c0.7,0,1.2-0.2,1.5-0.6c0.4-0.4,0.5-1.1,0.5-2.1V60
		c0-0.2,0.1-0.4,0.4-0.4h0.7c0.2,0,0.4,0.1,0.4,0.4v7.7c0,0.2-0.1,0.4-0.4,0.4h-0.7c-0.2,0-0.4-0.1-0.4-0.4v-0.6l0,0
		c-0.3,0.4-0.7,0.7-1.1,0.8c-0.4,0.2-0.9,0.3-1.5,0.3c-0.9,0-1.6-0.3-2-0.8C107.8,66.8,107.6,66.1,107.6,65.1L107.6,65.1z M116.9,68
		c-0.2,0-0.4-0.1-0.4-0.4V60c0-0.2,0.1-0.4,0.4-0.4h0.7c0.2,0,0.4,0.1,0.4,0.4v0.6l0,0c0.3-0.4,0.7-0.7,1.1-0.8
		c0.4-0.2,0.8-0.3,1.2-0.3c0.7,0,1.2,0.1,1.6,0.4c0.4,0.2,0.6,0.5,0.7,0.8h0c0.3-0.3,0.7-0.6,1.1-0.8c0.4-0.2,0.9-0.3,1.4-0.3
		c0.8,0,1.5,0.3,1.9,0.8c0.4,0.5,0.6,1.3,0.6,2.2v5.1c0,0.2-0.1,0.4-0.4,0.4h-0.7c-0.2,0-0.4-0.1-0.4-0.4v-4.6c0-1-0.1-1.7-0.4-2
		c-0.3-0.3-0.7-0.5-1.2-0.5c-0.5,0-1,0.2-1.3,0.7c-0.4,0.5-0.5,1.1-0.5,2.1v4.4c0,0.2-0.1,0.4-0.4,0.4h-0.7c-0.2,0-0.4-0.1-0.4-0.4
		v-4.6c0-1-0.1-1.7-0.4-2c-0.3-0.3-0.7-0.5-1.2-0.5c-0.5,0-1,0.2-1.3,0.6c-0.4,0.4-0.5,1.1-0.5,2.1v4.4c0,0.2-0.1,0.4-0.4,0.4H116.9
		z"/>
</g>
<g>
	<path class="st3" d="M6.6,94.9h-1v-7.7H1.2v7.7h-1v-8.6h6.4V94.9z"/>
	<path class="st3" d="M11.7,95c-0.4,0-0.8-0.1-1.1-0.2c-0.3-0.2-0.6-0.4-0.9-0.7H9.6c0,0.4,0.1,0.7,0.1,1.1v2.6h-1v-9.3h0.8l0.1,0.9
		h0c0.3-0.4,0.5-0.6,0.9-0.8s0.7-0.2,1.1-0.2c0.9,0,1.5,0.3,2,0.9c0.5,0.6,0.7,1.4,0.7,2.5c0,1.1-0.2,1.9-0.7,2.5
		C13.2,94.7,12.5,95,11.7,95z M11.5,89.2c-0.7,0-1.1,0.2-1.4,0.5c-0.3,0.4-0.4,0.9-0.5,1.7v0.2c0,0.9,0.2,1.6,0.5,1.9
		c0.3,0.4,0.8,0.6,1.5,0.6c0.6,0,1-0.2,1.3-0.7c0.3-0.5,0.5-1.1,0.5-1.9c0-0.8-0.2-1.4-0.5-1.8S12.1,89.2,11.5,89.2z"/>
	<path class="st3" d="M20.1,94.9L19.9,94h0c-0.3,0.4-0.6,0.7-1,0.8c-0.3,0.1-0.7,0.2-1.2,0.2c-0.6,0-1.1-0.2-1.5-0.5
		c-0.4-0.3-0.5-0.8-0.5-1.4c0-1.3,1-2,3.1-2l1.1,0v-0.4c0-0.5-0.1-0.9-0.3-1.1s-0.6-0.4-1-0.4c-0.5,0-1.1,0.2-1.8,0.5l-0.3-0.7
		c0.3-0.2,0.7-0.3,1-0.4c0.4-0.1,0.8-0.1,1.1-0.1c0.8,0,1.3,0.2,1.7,0.5c0.4,0.3,0.6,0.9,0.6,1.6v4.4H20.1z M17.9,94.2
		c0.6,0,1.1-0.2,1.4-0.5c0.3-0.3,0.5-0.8,0.5-1.4v-0.6l-1,0c-0.8,0-1.3,0.1-1.7,0.4c-0.3,0.2-0.5,0.5-0.5,1c0,0.4,0.1,0.6,0.3,0.8
		C17.2,94.1,17.5,94.2,17.9,94.2z"/>
	<path class="st3" d="M25.6,95c-1,0-1.7-0.3-2.3-0.9c-0.5-0.6-0.8-1.4-0.8-2.4c0-1,0.3-1.9,0.8-2.5s1.2-0.9,2.1-0.9
		c0.8,0,1.4,0.3,1.9,0.8s0.7,1.2,0.7,2.1v0.6h-4.4c0,0.8,0.2,1.3,0.6,1.7c0.4,0.4,0.9,0.6,1.5,0.6c0.7,0,1.4-0.1,2.1-0.4v0.9
		c-0.3,0.1-0.7,0.3-1,0.3C26.4,95,26,95,25.6,95z M25.3,89.1c-0.5,0-0.9,0.2-1.2,0.5c-0.3,0.3-0.5,0.8-0.5,1.4h3.4
		c0-0.6-0.1-1.1-0.4-1.4S25.8,89.1,25.3,89.1z"/>
	<path class="st3" d="M33.4,88.4h1.1l-2.8,3.1l3,3.3h-1.1l-2.9-3.3v3.3h-1v-6.4h1v3.1L33.4,88.4z"/>
	<path class="st3" d="M40.6,89.3h-2.1v5.6h-1v-5.6h-2.1v-0.8h5.1V89.3z"/>
	<path class="st3" d="M51.9,91.7c0,1-0.3,1.8-0.8,2.3s-1.3,0.9-2.3,1v2.8h-1V95c-1-0.1-1.7-0.4-2.3-1s-0.8-1.4-0.8-2.3
		c0-1,0.3-1.7,0.8-2.3c0.6-0.6,1.3-0.9,2.3-1v-2.6h0.9v2.6c1,0.1,1.8,0.4,2.3,1C51.6,90,51.9,90.7,51.9,91.7z M45.7,91.7
		c0,0.8,0.2,1.3,0.5,1.8c0.3,0.4,0.9,0.7,1.6,0.7v-5c-0.7,0.1-1.3,0.3-1.6,0.7C45.8,90.3,45.7,90.9,45.7,91.7z M50.9,91.7
		c0-1.5-0.7-2.3-2.1-2.5v5c0.7-0.1,1.3-0.3,1.6-0.8C50.7,93,50.9,92.4,50.9,91.7z"/>
	<path class="st3" d="M53.4,86.7c0-0.2,0.1-0.4,0.2-0.5c0.1-0.1,0.2-0.2,0.4-0.2c0.2,0,0.3,0.1,0.4,0.2s0.2,0.3,0.2,0.5
		s-0.1,0.4-0.2,0.5c-0.1,0.1-0.2,0.2-0.4,0.2c-0.2,0-0.3-0.1-0.4-0.2C53.5,87.1,53.4,86.9,53.4,86.7z M54.5,94.9h-1v-6.4h1V94.9z"/>
	<path class="st3" d="M57.5,88.4v2.7h3.6v-2.7h1v6.4h-1V92h-3.6v2.9h-1v-6.4H57.5z"/>
	<path class="st3" d="M68,94.9L67.8,94h0c-0.3,0.4-0.6,0.7-1,0.8S66.1,95,65.6,95c-0.6,0-1.1-0.2-1.5-0.5c-0.4-0.3-0.5-0.8-0.5-1.4
		c0-1.3,1-2,3.1-2l1.1,0v-0.4c0-0.5-0.1-0.9-0.3-1.1c-0.2-0.2-0.6-0.4-1-0.4c-0.5,0-1.1,0.2-1.8,0.5l-0.3-0.7c0.3-0.2,0.7-0.3,1-0.4
		s0.8-0.1,1.1-0.1c0.8,0,1.3,0.2,1.7,0.5s0.6,0.9,0.6,1.6v4.4H68z M65.8,94.2c0.6,0,1.1-0.2,1.4-0.5c0.3-0.3,0.5-0.8,0.5-1.4v-0.6
		l-1,0c-0.8,0-1.3,0.1-1.7,0.4c-0.3,0.2-0.5,0.5-0.5,1c0,0.4,0.1,0.6,0.3,0.8C65.1,94.1,65.4,94.2,65.8,94.2z"/>
	<path class="st3" d="M71.7,88.4v2.7h3.6v-2.7h1v6.4h-1V92h-3.6v2.9h-1v-6.4H71.7z"/>
	<path class="st3" d="M81,95c-0.9,0-1.7-0.3-2.2-0.9c-0.5-0.6-0.8-1.4-0.8-2.4c0-1.1,0.3-1.9,0.8-2.5s1.3-0.9,2.2-0.9
		c0.3,0,0.6,0,0.9,0.1c0.3,0.1,0.6,0.1,0.7,0.2l-0.3,0.8c-0.2-0.1-0.5-0.2-0.7-0.2c-0.3-0.1-0.5-0.1-0.7-0.1c-1.3,0-2,0.8-2,2.5
		c0,0.8,0.2,1.4,0.5,1.8s0.8,0.6,1.4,0.6c0.5,0,1.1-0.1,1.6-0.3v0.9C82.2,94.9,81.6,95,81,95z"/>
	<path class="st3" d="M83.6,88.4h1l1.4,3.7c0.3,0.8,0.5,1.4,0.6,1.8h0c0.1-0.2,0.2-0.5,0.3-1c0.2-0.5,0.7-2,1.6-4.5h1l-2.8,7.3
		c-0.3,0.7-0.6,1.2-1,1.5c-0.4,0.3-0.8,0.5-1.3,0.5c-0.3,0-0.6,0-0.9-0.1v-0.8c0.2,0,0.5,0.1,0.7,0.1c0.7,0,1.1-0.4,1.4-1.1l0.4-0.9
		L83.6,88.4z"/>
	<path class="st3" d="M93.4,95c-1,0-1.7-0.3-2.3-0.9c-0.5-0.6-0.8-1.4-0.8-2.4c0-1,0.3-1.9,0.8-2.5s1.2-0.9,2.1-0.9
		c0.8,0,1.4,0.3,1.9,0.8c0.5,0.5,0.7,1.2,0.7,2.1v0.6h-4.4c0,0.8,0.2,1.3,0.6,1.7s0.9,0.6,1.5,0.6c0.7,0,1.4-0.1,2.1-0.4v0.9
		c-0.3,0.1-0.7,0.3-1,0.3C94.2,95,93.8,95,93.4,95z M93.1,89.1c-0.5,0-0.9,0.2-1.2,0.5c-0.3,0.3-0.5,0.8-0.5,1.4h3.4
		c0-0.6-0.1-1.1-0.4-1.4S93.6,89.1,93.1,89.1z"/>
	<path class="st3" d="M103.7,97.1h-1v-2.2h-5.3v-6.4h1V94h3.4v-5.6h1V94h0.9V97.1z"/>
	<path class="st3" d="M111.4,97.1h-1v-2.2h-5.3v-6.4h1V94h3.4v-5.6h1V94h0.9V97.1z"/>
	<path class="st3" d="M116.9,94.9l-0.2-0.9h0c-0.3,0.4-0.6,0.7-1,0.8s-0.7,0.2-1.2,0.2c-0.6,0-1.1-0.2-1.5-0.5
		c-0.4-0.3-0.5-0.8-0.5-1.4c0-1.3,1-2,3.1-2l1.1,0v-0.4c0-0.5-0.1-0.9-0.3-1.1s-0.6-0.4-1-0.4c-0.5,0-1.1,0.2-1.8,0.5l-0.3-0.7
		c0.3-0.2,0.7-0.3,1-0.4s0.8-0.1,1.1-0.1c0.8,0,1.3,0.2,1.7,0.5s0.6,0.9,0.6,1.6v4.4H116.9z M114.7,94.2c0.6,0,1.1-0.2,1.4-0.5
		c0.3-0.3,0.5-0.8,0.5-1.4v-0.6l-1,0c-0.8,0-1.3,0.1-1.7,0.4c-0.3,0.2-0.5,0.5-0.5,1c0,0.4,0.1,0.6,0.3,0.8
		C114,94.1,114.3,94.2,114.7,94.2z"/>
	<path class="st3" d="M5,108.9H0.2v-8.6H5v0.9H1.2v2.8h3.6v0.9H1.2v3.2H5V108.9z"/>
	<path class="st3" d="M5.7,102.5h1l1.4,3.7c0.3,0.8,0.5,1.4,0.6,1.8h0c0.1-0.2,0.2-0.5,0.3-1c0.2-0.5,0.7-2,1.6-4.5h1L9,109.8
		c-0.3,0.7-0.6,1.2-1,1.5s-0.8,0.5-1.3,0.5c-0.3,0-0.6,0-0.9-0.1v-0.8c0.2,0,0.5,0.1,0.7,0.1c0.7,0,1.1-0.4,1.4-1.1l0.4-0.9
		L5.7,102.5z M8.7,101.6c-0.7,0-1.3-0.1-1.6-0.4c-0.3-0.3-0.5-0.7-0.6-1.4h0.9c0,0.4,0.1,0.7,0.3,0.9c0.2,0.2,0.5,0.2,0.9,0.2
		c0.4,0,0.7-0.1,0.9-0.3s0.3-0.5,0.4-0.8h0.9c0,0.6-0.2,1.1-0.6,1.4C9.9,101.5,9.4,101.6,8.7,101.6z"/>
	<path class="st3" d="M16,109c-0.4,0-0.8-0.1-1.1-0.2c-0.3-0.2-0.6-0.4-0.9-0.7h-0.1c0,0.4,0.1,0.7,0.1,1.1v2.6h-1v-9.3h0.8l0.1,0.9
		h0c0.3-0.4,0.5-0.6,0.9-0.8s0.7-0.2,1.1-0.2c0.9,0,1.5,0.3,2,0.9c0.5,0.6,0.7,1.4,0.7,2.5c0,1.1-0.2,1.9-0.7,2.5S16.8,109,16,109z
		 M15.8,103.2c-0.7,0-1.1,0.2-1.4,0.5c-0.3,0.4-0.4,0.9-0.5,1.7v0.2c0,0.9,0.2,1.6,0.5,1.9s0.8,0.6,1.5,0.6c0.6,0,1-0.2,1.3-0.7
		c0.3-0.5,0.5-1.1,0.5-1.9c0-0.8-0.2-1.4-0.5-1.8C16.9,103.4,16.4,103.2,15.8,103.2z"/>
	<path class="st3" d="M24.4,108.9l-0.2-0.9h0c-0.3,0.4-0.6,0.7-1,0.8c-0.3,0.1-0.7,0.2-1.2,0.2c-0.6,0-1.1-0.2-1.5-0.5
		c-0.4-0.3-0.5-0.8-0.5-1.4c0-1.3,1-2,3.1-2l1.1,0v-0.4c0-0.5-0.1-0.9-0.3-1.1s-0.6-0.4-1-0.4c-0.5,0-1.1,0.2-1.8,0.5l-0.3-0.7
		c0.3-0.2,0.7-0.3,1-0.4c0.4-0.1,0.8-0.1,1.1-0.1c0.8,0,1.3,0.2,1.7,0.5c0.4,0.3,0.6,0.9,0.6,1.6v4.4H24.4z M22.2,108.2
		c0.6,0,1.1-0.2,1.4-0.5c0.3-0.3,0.5-0.8,0.5-1.4v-0.6l-1,0c-0.8,0-1.3,0.1-1.7,0.4c-0.3,0.2-0.5,0.5-0.5,1c0,0.4,0.1,0.6,0.3,0.8
		C21.5,108.1,21.8,108.2,22.2,108.2z"/>
	<path class="st3" d="M28.1,108.9h-1v-6.4h5.4v6.4h-1v-5.6h-3.4V108.9z"/>
	<path class="st3" d="M37.3,109c-1,0-1.7-0.3-2.3-0.9c-0.5-0.6-0.8-1.4-0.8-2.4c0-1,0.3-1.9,0.8-2.5s1.2-0.9,2.1-0.9
		c0.8,0,1.4,0.3,1.9,0.8s0.7,1.2,0.7,2.1v0.6h-4.4c0,0.8,0.2,1.3,0.6,1.7c0.4,0.4,0.9,0.6,1.5,0.6c0.7,0,1.4-0.1,2.1-0.4v0.9
		c-0.3,0.1-0.7,0.3-1,0.3C38.1,109,37.8,109,37.3,109z M37.1,103.2c-0.5,0-0.9,0.2-1.2,0.5c-0.3,0.3-0.5,0.8-0.5,1.4h3.4
		c0-0.6-0.1-1.1-0.4-1.4C38,103.3,37.6,103.2,37.1,103.2z"/>
	<path class="st3" d="M42.3,102.5v4.1l0,1.1l0,0.3l3.5-5.5h1.2v6.4H46V105l0-0.8l0-0.8l-3.5,5.5h-1.2v-6.4H42.3z M44.1,101.6
		c-0.7,0-1.3-0.1-1.6-0.4c-0.3-0.3-0.5-0.7-0.6-1.4h0.9c0,0.4,0.1,0.7,0.3,0.9c0.2,0.2,0.5,0.2,0.9,0.2c0.4,0,0.7-0.1,0.9-0.3
		c0.2-0.2,0.3-0.5,0.4-0.8h0.9c0,0.6-0.2,1.1-0.6,1.4C45.4,101.5,44.9,101.6,44.1,101.6z"/>
	<path class="st3" d="M51.6,109c-0.9,0-1.7-0.3-2.2-0.9c-0.5-0.6-0.8-1.4-0.8-2.4c0-1.1,0.3-1.9,0.8-2.5c0.5-0.6,1.3-0.9,2.2-0.9
		c0.3,0,0.6,0,0.9,0.1c0.3,0.1,0.6,0.1,0.7,0.2l-0.3,0.8c-0.2-0.1-0.5-0.2-0.7-0.2c-0.3-0.1-0.5-0.1-0.7-0.1c-1.3,0-2,0.8-2,2.5
		c0,0.8,0.2,1.4,0.5,1.8s0.8,0.6,1.4,0.6c0.5,0,1.1-0.1,1.6-0.3v0.9C52.8,108.9,52.2,109,51.6,109z"/>
	<path class="st3" d="M58.5,102.5h1.1l-2.8,3.1l3,3.3h-1.1l-2.9-3.3v3.3h-1v-6.4h1v3.1L58.5,102.5z"/>
	<path class="st3" d="M61.1,100.7c0-0.2,0.1-0.4,0.2-0.5s0.2-0.2,0.4-0.2c0.2,0,0.3,0.1,0.4,0.2c0.1,0.1,0.2,0.3,0.2,0.5
		c0,0.2-0.1,0.4-0.2,0.5c-0.1,0.1-0.2,0.2-0.4,0.2c-0.2,0-0.3-0.1-0.4-0.2C61.1,101.1,61.1,101,61.1,100.7z M62.1,108.9h-1v-6.4h1
		V108.9z"/>
	<path class="st3" d="M67.5,108l0.2-0.5l0.3-0.7l1.7-4.2h1.2v6.4H70v-5.3l-0.1,0.3l-0.3,0.9l-1.7,4.1h-0.8l-1.7-4.1
		c-0.2-0.5-0.4-0.9-0.4-1.2v5.3h-0.9v-6.4h1.2l1.7,4.1C67.2,107,67.4,107.5,67.5,108z"/>
	<path class="st3" d="M79.9,101.1c-0.9,0-1.7,0.3-2.2,0.9s-0.8,1.5-0.8,2.6c0,1.1,0.3,2,0.8,2.6s1.3,0.9,2.3,0.9
		c0.6,0,1.3-0.1,2-0.3v0.9c-0.6,0.2-1.3,0.3-2.2,0.3c-1.3,0-2.2-0.4-2.9-1.2c-0.7-0.8-1-1.9-1-3.3c0-0.9,0.2-1.7,0.5-2.3
		c0.3-0.7,0.8-1.2,1.4-1.5c0.6-0.4,1.4-0.5,2.2-0.5c0.9,0,1.7,0.2,2.4,0.5l-0.4,0.9C81.2,101.2,80.6,101.1,79.9,101.1z"/>
	<path class="st3" d="M87.8,108.9l-0.2-0.9h0c-0.3,0.4-0.6,0.7-1,0.8s-0.7,0.2-1.2,0.2c-0.6,0-1.1-0.2-1.5-0.5
		c-0.4-0.3-0.5-0.8-0.5-1.4c0-1.3,1-2,3.1-2l1.1,0v-0.4c0-0.5-0.1-0.9-0.3-1.1s-0.6-0.4-1-0.4c-0.5,0-1.1,0.2-1.8,0.5l-0.3-0.7
		c0.3-0.2,0.7-0.3,1-0.4s0.8-0.1,1.1-0.1c0.8,0,1.3,0.2,1.7,0.5s0.6,0.9,0.6,1.6v4.4H87.8z M85.6,108.2c0.6,0,1.1-0.2,1.4-0.5
		c0.3-0.3,0.5-0.8,0.5-1.4v-0.6l-1,0c-0.8,0-1.3,0.1-1.7,0.4c-0.3,0.2-0.5,0.5-0.5,1c0,0.4,0.1,0.6,0.3,0.8
		C84.9,108.1,85.2,108.2,85.6,108.2z"/>
	<path class="st3" d="M98.8,105.7c0,1.1-0.3,1.9-0.8,2.5c-0.5,0.6-1.2,0.9-2.1,0.9c-0.8,0-1.5-0.3-2-0.8c-0.5-0.5-0.8-1.3-0.8-2.2
		h-1.7v2.9h-1v-6.4h1v2.7h1.7c0.1-0.9,0.4-1.6,0.9-2.1c0.5-0.5,1.1-0.7,2-0.7c0.9,0,1.5,0.3,2,0.9S98.8,104.7,98.8,105.7z
		 M94.2,105.7c0,0.8,0.1,1.5,0.4,1.9s0.7,0.6,1.4,0.6c0.6,0,1.1-0.2,1.4-0.6s0.4-1,0.4-1.9c0-0.8-0.1-1.4-0.4-1.9s-0.7-0.6-1.4-0.6
		c-0.6,0-1.1,0.2-1.4,0.6S94.2,104.9,94.2,105.7z"/>
	<path class="st3" d="M101.7,105.1c1.2,0,1.8-0.3,1.8-1c0-0.6-0.5-1-1.5-1c-0.3,0-0.6,0-0.8,0.1s-0.6,0.2-1,0.3l-0.3-0.8
		c0.7-0.3,1.4-0.4,2.2-0.4c0.7,0,1.3,0.2,1.7,0.5c0.4,0.3,0.6,0.7,0.6,1.2c0,0.7-0.4,1.2-1.2,1.4v0c0.5,0.1,0.9,0.4,1.1,0.6
		s0.3,0.6,0.3,1c0,0.6-0.2,1.1-0.7,1.4s-1.1,0.5-2,0.5c-0.9,0-1.6-0.1-2.1-0.4v-0.9c0.7,0.3,1.4,0.5,2.2,0.5c0.6,0,1-0.1,1.3-0.3
		c0.3-0.2,0.4-0.5,0.4-0.8c0-0.7-0.6-1.1-1.8-1.1H101v-0.8H101.7z"/>
	<path class="st3" d="M110.4,108.9l-0.2-0.9h0c-0.3,0.4-0.6,0.7-1,0.8c-0.3,0.1-0.7,0.2-1.2,0.2c-0.6,0-1.1-0.2-1.5-0.5
		c-0.4-0.3-0.5-0.8-0.5-1.4c0-1.3,1-2,3.1-2l1.1,0v-0.4c0-0.5-0.1-0.9-0.3-1.1s-0.6-0.4-1-0.4c-0.5,0-1.1,0.2-1.8,0.5l-0.3-0.7
		c0.3-0.2,0.7-0.3,1-0.4c0.4-0.1,0.8-0.1,1.1-0.1c0.8,0,1.3,0.2,1.7,0.5c0.4,0.3,0.6,0.9,0.6,1.6v4.4H110.4z M108.2,108.2
		c0.6,0,1.1-0.2,1.4-0.5c0.3-0.3,0.5-0.8,0.5-1.4v-0.6l-1,0c-0.8,0-1.3,0.1-1.7,0.4c-0.3,0.2-0.5,0.5-0.5,1c0,0.4,0.1,0.6,0.3,0.8
		S107.8,108.2,108.2,108.2z"/>
	<path class="st3" d="M116.5,108l0.2-0.5l0.3-0.7l1.7-4.2h1.2v6.4h-0.9v-5.3l-0.1,0.3l-0.3,0.9l-1.7,4.1h-0.8l-1.7-4.1
		c-0.2-0.5-0.4-0.9-0.4-1.2v5.3h-0.9v-6.4h1.2l1.7,4.1C116.2,107,116.4,107.5,116.5,108z"/>
</g>
<path class="st4" d="M133.9,84.7H168V112h-34.1V84.7z"/>
<g>
	<g>
		<path class="st5" d="M146.2,106.9l-0.3-1l-0.3,1h-1.1l0.9,0.6l-0.3,1.1l0.9-0.7l0.9,0.7l-0.3-1l0.9-0.6H146.2z M151.3,108.3
			l-0.3-1l-0.3,1l-1.1,0l0.9,0.6l-0.3,1l0.9-0.6l0.9,0.7l-0.3-1l0.9-0.7H151.3z M160.1,103.2l-0.3-1l-0.3,1h-1.1l0.9,0.6l-0.3,1
			l0.9-0.6l0.9,0.7l-0.3-1l0.9-0.7H160.1z M156.4,106.9l-0.3-1l-0.4,1h-1.1l0.9,0.6l-0.3,1.1l0.9-0.7l0.9,0.7l-0.4-1l0.9-0.6H156.4z
			 M142.5,103.2l-0.3-1l-0.4,1h-1.1l0.9,0.6l-0.3,1l0.9-0.6l0.9,0.7l-0.4-1l0.9-0.7H142.5z M140.8,99.1l0.9,0.7l-0.4-1l0.9-0.7h-1.1
			l-0.3-1l-0.4,1l-1.1,0l0.9,0.6l-0.3,1L140.8,99.1z M145.9,88.2l-0.3,1h-1.1l0.9,0.6l-0.3,1l0.9-0.7l0.9,0.7l-0.3-1l0.9-0.6h-1.1
			L145.9,88.2z M142.1,91.9l-0.4,1h-1.1l0.9,0.6l-0.3,1l0.9-0.7l0.9,0.7l-0.4-1l0.9-0.6h-1.1L142.1,91.9z M151,86.8l-0.3,1l-1.1,0
			l0.9,0.6l-0.3,1l0.9-0.6l0.9,0.7l-0.3-1l0.9-0.7h-1.1L151,86.8z M156.1,88.2l-0.4,1h-1.1l0.9,0.6l-0.3,1l0.9-0.7l0.9,0.7l-0.4-1
			l0.9-0.6h-1.1L156.1,88.2z M162.6,98h-1.1l-0.3-1l-0.4,1l-1.1,0l0.9,0.6l-0.3,1l0.9-0.6l0.9,0.7l-0.3-1L162.6,98z M158.9,94.6
			l0.9-0.7l0.9,0.7l-0.3-1l0.9-0.6h-1.1l-0.3-1l-0.3,1h-1.1l0.9,0.6L158.9,94.6z"/>
	</g>
</g>
</svg>
